{"data":{"pageInfo":{"endRow":10,"firstPage":true,"hasNextPage":true,"hasPrePage":false,"lastPage":false,"limit":10,"nextPage":2,"offset":0,"page":1,"prePage":1,"slider":[1,2,3],"startRow":1,"totalCount":29,"totalPages":3},"posts":[{"content":"testtesttest","createdBy":"yanpeng@qq.com","createdDate":"2015-09-21 18:01:00","id":41,"title":"test","updatedBy":"yanpeng@qq.com","updatedDate":"2015-09-21 18:01:00","userId":12,"version":1,"viewCount":0},{"content":"testtest","createdBy":"yanpeng@qq.com","createdDate":"2015-09-21 18:00:49","id":40,"title":"test","updatedBy":"yanpeng@qq.com","updatedDate":"2015-09-21 18:00:49","userId":12,"version":1,"viewCount":0},{"content":"test","createdBy":"yanpeng@qq.com","createdDate":"2015-09-21 17:59:15","id":39,"title":"test","updatedBy":"yanpeng@qq.com","updatedDate":"2015-09-21 17:59:15","userId":12,"version":1,"viewCount":0},{"content":"testone","createdBy":"yanpeng@qq.com","createdDate":"2015-09-21 17:58:18","id":38,"title":"test","updatedBy":"yanpeng@qq.com","updatedDate":"2015-09-21 17:58:18","userId":12,"version":1,"viewCount":0},{"content":"test","createdBy":"yanpeng@qq.com","createdDate":"2015-09-21 17:57:41","id":37,"title":"test","updatedBy":"yanpeng@qq.com","updatedDate":"2015-09-21 17:57:41","userId":12,"version":1,"viewCount":0},{"content":"test10","createdBy":"1234567@xx.com","createdDate":"2015-09-21 17:55:39","id":36,"title":"test10","updatedBy":"1234567@xx.com","updatedDate":"2015-09-21 17:55:39","userId":31,"version":1,"viewCount":0},{"content":"test","createdBy":"yanpeng@qq.com","createdDate":"2015-09-21 14:22:20","id":34,"title":"test","updatedBy":"yanpeng@qq.com","updatedDate":"2015-09-21 14:22:20","userId":12,"version":1,"viewCount":0},{"content":"test9","createdBy":"1234567@xx.com","createdDate":"2015-09-21 13:58:47","id":33,"title":"test9","updatedBy":"1234567@xx.com","updatedDate":"2015-09-21 17:04:22","userId":31,"version":10,"viewCount":0},{"content":"test8","createdBy":"1234567@xx.com","createdDate":"2015-09-21 11:18:04","id":32,"title":"test8","updatedBy":"1234567@xx.com","updatedDate":"2015-09-21 13:02:27","userId":31,"version":5,"viewCount":0},{"content":"test7","createdBy":"1234567@xx.com","createdDate":"2015-09-21 11:14:46","id":31,"title":"test7","updatedBy":"1234567@xx.com","updatedDate":"2015-09-21 11:14:46","userId":31,"version":1,"viewCount":0}]},"now":"2015-09-22 09:59:27","responseCode":0}